{
          "title" : "Mesh Volumes Extractor",
           "kind" : "process",
           "type" : "meshVolumesExtractor",
    "tags" : ["mesh", "extractor", "volumes"],
    "description" : "<p><h3>Mesh Volumes Extractor Node</h3> </p>
                     <p>The input is a dtkMesh</p>
                     <p>The output is a dtkMeshCollection of volumic dtkMeshes</p>
                     ",
        "inputs" : ["mesh_in"],
        "outputs" : ["vol_meshes_out"]
}
