# number_of_partitions   number_of_elements    number_of_vertices
4                            16                     13
# id of the partition that owns the element (number_of_element lines)
3
2
3
3
0
1
2
0
0
2
1
1
2
1
3
0
# id of th partition that owns the vertex (number_of_vertex lines)
2
1
0
3
1
0
0
3
0
2
0
1
2
