# vtk DataFile Version 2.0
test_renum, Created by Gmsh
ASCII
DATASET UNSTRUCTURED_GRID
POINTS 13 double
0 0 0
1 0 0
1 1 0
0 1 0
0.5 0 0
1 0.5 0
0.5 1 0
0 0.5 0
0.5 0.5 0
0.25 0.75 0
0.75 0.75 0
0.75 0.25 0
0.25 0.25 0

CELLS 16 64
3 12 9 7
3 8 9 12
3 3 9 6
3 0 12 7
3 2 10 5
3 1 11 4
3 6 9 8
3 6 8 10
3 5 10 8
3 4 8 12
3 4 11 8
3 5 8 11
3 0 4 12
3 1 5 11
3 3 7 9
3 2 6 10

CELL_TYPES 16
5
5
5
5
5
5
5
5
5
5
5
5
5
5
5
5
